…
    ## [1] 2691

How many at a precision \> than 5 digits Xxx.x

``` r
#which are new in the level higher than 6
ICD10fi_standard_new  %>% 
select(CodeId, English_name, ShortName) %>% 
mutate(group = nchar(CodeId) #str_sub(concept_code, 0, 1)
      ) %>% filter(group<6)
```

    ## # A tibble: 83 x 4
    ##    CodeId English_name                               ShortName             group
    ##    <chr>  <chr>                                      <chr>                 <int>
    ##  1 B07.9  Verruca simplex                            Tavallinen syylä          5
    ##  2 F61.0  Mixed personality disorders                Sekamuotoiset persoo~     5
    ##  3 F61.1  <NA>                                       Häiritsevä persoonal~     5
    ##  4 W71    Drowning to ice                            Vajoaminen jäihin         3
    ##  5 X85.0  Assault by drugs, medicaments and biologi~ Pahoinpitely lääkeai~     5
    ##  6 X85.2  Assault by drugs, medicaments and biologi~ Pahoinpitely lääkeai~     5
    ##  7 X85.8  Assault by drugs, medicaments and biologi~ Pahoinpitely lääkeai~     5
    ##  8 X85.9  Assault by drugs, medicaments and biologi~ Pahoinpitely lääkeai~     5
    ##  9 X90.0  Assault by unspecified chemical or noxiou~ Pahoinpit.kem.aineil~     5
    ## 10 X90.2  Assault by unspecified chemical or noxiou~ Pahoinpit.kem.aineil~     5
    ## # ... with 73 more rows

Are unmached codes more frequent in a category ??

``` r
# what groups have more new ones 
ICD10fi_standard_new  %>% 
select(CodeId, English_name, ShortName) %>% 
mutate(group = str_sub(CodeId, 0, 1)) %>% count(group, sort = T)
```

    ## # A tibble: 25 x 2
    ##    group     n
    ##    <chr> <int>
    ##  1 C       770
    ##  2 F       497
    ##  3 Q       348
    ##  4 K       313
    ##  5 D       130
    ##  6 I       105
    ##  7 E        89
    ##  8 G        62
    ##  9 H        50
    ## 10 X        48
    ## # ... with 15 more rows
…
