…
### Progess in number of events

Accepted codes covers 95% of the total number of events in the combined
databases.

Accepted codes covers all codes with more than 742 events in the
combined databases.

Top50 of the unchecked events sort by number of events :

    ## # A tibble: 50 x 5
    ##    sourceCode sourceFrequency matchScore sourceName        `ADD_INFO:LongName`  
    ##    <chr>                <dbl>      <dbl> <chr>             <chr>                
    ##  1 ZXK00                  742      0.563 Conversion from ~ Toimenpiteen muuntam~
    ##  2 WW300                  731      0.542 Transfer of auto~ Autologinen kantasol~
    ##  3 NGJ62                  715      0.549 Internal fixatio~ S<U+FFFD><U+FFFD>rimurtumaleikkaus~
    ##  4 SJC01                  708      0.410 <NA>              Yksitt<U+FFFD>isen kiinnikk~
    ##  5 SPC20                  700      0.540 Attachment of cr~ Implanttikantoinen h~
    ##  6 QB2S1                  697      0.410 <NA>              Rintakeh<U+FFFD>n ihon tai ~
    ##  7 QCB05                  697      0.737 Revision of woun~ Yl<U+FFFD>raajan syv<U+FFFD>n ihoh~
    ##  8 KCW98                  691      0.611 Other translumin~ Muu virtsarakon toim~
    ##  9 JGB00                  690      0.606 Partial proctect~ Per<U+FFFD>suolen typistys,~
    ## 10 SDA04                  686      0.507 Very demanding p~ Parodontologinen hoi~
    ## # ... with 40 more rows
…
