…
ICD10fi_2code_1code_name_match <- 
  inner_join(
    ICD10fi_2code_1code_not_matched,
    ICD10fi_1code_full_match  %>% select(code_ICD10who, name_fi), 
    by = c("name_fi")
  ) %>% 
  mutate(Mapping_type="ICD10who name_fi", code_ICD10who = code1)

ICD10fi_2code_1code_name_match %>%  select(code, code_ICD10who, name_fi, name_en, name_en_source) %>% arrange(name_fi)
```

    ## # A tibble: 110 x 5
    ##    code     code_ICD10who name_fi             name_en             name_en_source
    ##    <chr>    <chr>         <chr>               <chr>               <chr>         
    ##  1 G46.3*I~ G46.3         Aivorungon halvaus~ Brain stem stroke ~ THL           
    ##  2 I67.9+G~ I67.9         Aivorungon halvaus~ Brain stem stroke ~ THL           
    ##  3 I00+L54~ I00           Akuutti kuumereuma~ Erythema marginatu~ THL           
    ##  4 L54.0*I~ L54.0         Akuutti kuumereuma~ Erythema marginatu~ THL           
    ##  5 L40.5+M~ L40.5         Arthritis mutilans  Arthritis mutilans  THL           
    ##  6 M07.1*L~ M07.1         Arthritis mutilans  Arthritis mutilans  THL           
    ##  7 B57.3+K~ B57.3         Chagasin tauti ja ~ Megacolon in Chaga~ THL           
    ##  8 K93.1*B~ K93.1         Chagasin tauti ja ~ Megacolon in Chaga~ THL           
    ##  9 B57.3+K~ B57.3         Chagasin tautiin l~ Megaoesophagus in ~ THL           
    ## 10 K23.1*B~ K23.1         Chagasin tautiin l~ Megaoesophagus in ~ THL           
    ## # ... with 100 more rows
…
