…
Great, only typos and the -1, -2 error codes

``` r
finngen_standard <- finngen_join %>% filter(!is.na(ShortName)) %>% select(CodeId, n_codes, freq_finngen_per, LongName, ENGLongName, Description, HierarchyLevel, BeginningDate, ExpiringDate, LastModifiedDate)
finngen_standard
```

    ## # A tibble: 323 x 10
    ##    CodeId n_codes freq_finngen_per LongName ENGLongName Description
    ##    <chr>    <dbl> <chr>            <chr>    <chr>       <chr>      
    ##  1 SPAT1~ 1155579 18.901860%       Lääkkee~ Administra~ suun tai m~
    ##  2 SPAT1~  535003 8.751069%        Ei toim~ No procedu~ palvelutap~
    ##  3 SPAT1~  503814 8.240909%        Itsenäi~ Counsellin~ vajaakykyi~
    ##  4 SPAT1~  404915 6.623214%        Ravitse~ Counsellin~ ravitsemuk~
    ##  5 SPAT1~  306836 5.018931%        Potilaa~ Taking car~ potilaan/a~
    ##  6 SPAT1~  258797 4.233155%        Muu SHT~ Other func~ SPAT-luoki~
    ##  7 SPAT1~  249949 4.088428%        Lihas- ~ Intramuscu~ hoitavan a~
    ##  8 SPAT1~  219239 3.586103%        Näyttee~ Sampling    näytteenot~
    ##  9 SPAT1~  187380 3.064983%        Kroonis~ Comprehens~ kroonisen ~
    ## 10 SPAT1~  176470 2.886528%        Lääkity~ Initiation~ lääkitykse~
    ## # ... with 313 more rows, and 4 more variables: HierarchyLevel <dbl>,
    ## #   BeginningDate <dttm>, ExpiringDate <dttm>, LastModifiedDate <dttm>
…
