…
Several codes cover the same concept. They have the same LongName and
ShortName.

``` r
same_concept <- ICD10fi %>% count(ShortName, LongName, sort = T) %>% filter(n>1) %>%  .$LongName

ICD10fi %>% filter(LongName %in% same_concept) %>% arrange(LongName) %>% 
  select(CodeId, English_name, Code1, Code2)# %>%  print(n=100)
```

    ## # A tibble: 1,133 x 4
    ##    CodeId      English_name                                       Code1 Code2
    ##    <chr>       <chr>                                              <chr> <chr>
    ##  1 E50.8+L86   Follicular keratosis due to a vitamin A deficiency E50.8 L86  
    ##  2 L86*E50.8   Follicular keratosis due to a vitamin A deficiency L86   E50.8
    ##  3 B60.1+H13.1 Conjunctivitis due to Acanthamoeba+                B60.1 H13.1
    ##  4 H13.1*B60.1 Conjunctivitis due to Acanthamoeba+                H13.1 B60.1
    ##  5 B60.1+H19.2 Keratoconjunctivitis due to Acanthamoeba+          B60.1 H19.2
    ##  6 H19.2*B60.1 Keratoconjunctivitis due to Acanthamoeba+          H19.2 B60.1
    ##  7 A87.1+G02.0 Adenoviral meningitis                              A87.1 G02.0
    ##  8 G02.0*A87.1 Adenoviral meningitis                              G02.0 A87.1
    ##  9 B30.1+H13.1 Conjunctivitis due to adenovirus                   B30.1 H13.1
    ## 10 H13.1*B30.1 Conjunctivitis due to adenovirus                   H13.1 B30.1
    ## # ... with 1,123 more rows
…
ICD10fi_not_matched <- ICD10fi  %>% filter(!(CodeId %in% matched_ids))

ICD10fi_matched <- bind_rows(ICD10fi_full_code_match, ICD10fi_almostfull_match_icd10who)

ICD10fi_LongName_match <- 
  inner_join(
    ICD10fi_not_matched,
    ICD10fi_matched  %>% select(CodeId, ShortName, LongName, ICD10who_code, ICD10who_name, English_name_match_level ) %>% rename(CodeId_matched = CodeId, ShortName_matched = ShortName) , 
    by = c("LongName")
  )

ICD10fi_LongName_match
```

    ## # A tibble: 110 x 15
    ##    CodeId ShortName LongName ParentId HierarchyLevel BeginningDate ExpiringDate
    ##    <chr>  <chr>     <chr>    <chr>    <chr>          <date>        <date>      
    ##  1 A17.9~ Määrittä~ Määritt~ A17      3              1900-01-01    2020-12-31  
    ##  2 A18.0~ Selkäran~ Selkära~ A18      3              1900-01-01    2020-12-31  
    ##  3 A18.1~ Kohdunka~ Kohdunk~ A18      3              1900-01-01    2020-12-31  
    ##  4 A18.1~ Sisäsynn~ Sisäsyn~ A18      3              1900-01-01    2020-12-31  
    ##  5 A18.3~ Tb, vats~ Tuberku~ A18      3              1900-01-01    2020-12-31  
    ##  6 A18.3~ Suolisto~ Suolist~ A18      3              1900-01-01    2020-12-31  
    ##  7 A18.7~ Lisämunu~ Lisämun~ A18      3              1900-01-01    2020-12-31  
    ##  8 A18.8~ Ruokator~ Ruokato~ A18      3              1900-01-01    2020-12-31  
    ##  9 A52.7~ Myöhäisk~ Myöhäis~ A52      3              1900-01-01    2020-12-31  
    ## 10 A54.8~ Gonokokk~ Gonokok~ A54      3              1900-01-01    2020-12-31  
    ## # ... with 100 more rows, and 8 more variables: Code1 <chr>, Code2 <chr>,
    ## #   English_name <chr>, CodeId_matched <chr>, ShortName_matched <chr>,
    ## #   ICD10who_code <chr>, ICD10who_name <chr>, English_name_match_level <dbl>
…
    ## [1] 2571

Are unmached codes more frequent in a category ??

``` r
# what groups have more new ones 
ICD10fi_match_parent  %>% 
select(CodeId, English_name, ShortName) %>% 
mutate(group = str_sub(CodeId, 0, 1)) %>% count(group, sort = T)
```

    ## # A tibble: 24 x 2
    ##    group     n
    ##    <chr> <int>
    ##  1 C       731
    ##  2 F       497
    ##  3 Q       346
    ##  4 K       311
    ##  5 D       121
    ##  6 I       105
    ##  7 E        88
    ##  8 G        59
    ##  9 H        49
    ## 10 A        38
    ## # ... with 14 more rows
…
