…
``` r
finngen_join %>% filter(is_mapped_to_ICD10fi) %>% .$freq_per %>%  sum()
```

    ## [1] 95.56541

**What codes are not mapped and what percentage they take ?**

``` r
finngen_join %>% filter(!is_mapped_to_ICD10fi) %>% arrange(-freq_per) %>% 
  mutate(freq_per_text = percent(freq_per/100)) %>% 
  select(CODE1, n_codes, n_patients, freq_per, freq_per_text, name_eng)
```

    ## # A tibble: 356 x 6
    ##    CODE1 n_codes n_patients freq_per freq_per_text name_eng                     
    ##    <chr>   <dbl>      <dbl>    <dbl> <chr>         <chr>                        
    ##  1 A69     48618       1851   0.643  0.642503%     General and Unspecified, Oth~
    ##  2 -60     21464       6067   0.284  0.283654%     Result test/procedure        
    ##  3 -50     15703       3896   0.208  0.207520%     Medication/prescr/renewal    
    ##  4 -31     12643       7018   0.167  0.167081%     Medical examin/health eval p~
    ##  5 -44     11587       8225   0.153  0.153126%     Preventive immunization/medic
    ##  6 A48      9300       3417   0.123  0.122903%     General and Unspecified, Cla~
    ##  7 A60      7806       4101   0.103  0.103159%     General and Unspecified, Res~
    ##  8 -69      6629       3851   0.0876 0.087604%     Other reason for encounter N~
    ##  9 A44      6191       4888   0.0818 0.081816%     General and Unspecified, Pre~
    ## 10 -34      5654       2584   0.0747 0.074720%     Blood test                   
    ## # ... with 346 more rows
…
