…
Get codes with a described expansion in `ALONG:Huom.`

``` r
icd10fi_expansion_description <- ICD10fi %>% 
  filter(!is.na(`A:Yhdistelymerkki`)) %>% 
  filter(!str_detect(CodeId,"[:digit:]$")) %>% #dont end with mark
  filter(str_detect(`ALONG:Huom.`, "[:upper:][:digit:][:digit:]")) %>% 
  filter(str_detect(`ALONG:Huom.`, "tiologi")) %>% 
  arrange(`ALONG:Huom.`) %>% 
  select(CodeId,`ALONG:Huom.`) 

icd10fi_expansion_description
```

    ## # A tibble: 173 x 2
    ##    CodeId `ALONG:Huom.`                                          
    ##    <chr>  <chr>                                                  
    ##  1 D63.0* Etiologinen koodi valitaan luokasta C00-D48 - Kasvaimet
    ##  2 G73.2* Etiologinen koodi valitaan luokasta C00-D48 - Kasvaimet
    ##  3 G63.0* Etiologinen koodi valitaan luvusta A00-B99             
    ##  4 G94.0* Etiologinen koodi valitaan luvusta A00-B99             
    ##  5 H06.1* Etiologinen koodi valitaan luvusta A00-B99             
    ##  6 H13.1* Etiologinen koodi valitaan luvusta A00-B99             
    ##  7 H19.2* Etiologinen koodi valitaan luvusta A00-B99             
    ##  8 H22.0* Etiologinen koodi valitaan luvusta A00-B99             
    ##  9 H32.0* Etiologinen koodi valitaan luvusta A00-B99             
    ## 10 K67.8* Etiologinen koodi valitaan luvusta A00-B99             
    ## # ... with 163 more rows
…
icd10fi_extended <- icd10fi_extended %>% 
  rename(CodeId1 = CodeId) %>% 
  mutate(code1 = str_replace(CodeId1, "\\+|\\*|\\#|\\&", "")) %>% 
  mutate(code2 = str_replace(CodeId2,"\\+|\\*|\\#|\\&", "")) %>% 
  mutate(CodeId = str_c(CodeId1, code2)) %>% 
  select(CodeId, CodeId1, CodeId2, code1, code2) %>%  
  distinct(CodeId,.keep_all = T)
  
icd10fi_extended
```

    ## # A tibble: 54,438 x 5
    ##    CodeId       CodeId1 CodeId2 code1 code2 
    ##    <chr>        <chr>   <chr>   <chr> <chr> 
    ##  1 M90.0*A18.0  M90.0*  A18.0   M90.0 A18.0 
    ##  2 M73.0*A54.4  M73.0*  A54.4   M73.0 A54.4 
    ##  3 N29.0*A52.79 N29.0*  A52.79  N29.0 A52.79
    ##  4 M01.1*A18.0  M01.1*  A18.0   M01.1 A18.0 
    ##  5 M49.0*A18.0  M49.0*  A18.0   M49.0 A18.0 
    ##  6 N33.0*A18.1  N33.0*  A18.1   N33.0 A18.1 
    ##  7 K67.3*A18.3  K67.3*  A18.3   K67.3 A18.3 
    ##  8 K93.0*A18.3  K93.0*  A18.3   K93.0 A18.3 
    ##  9 K23.0*A18.8  K23.0*  A18.8   K23.0 A18.8 
    ## 10 M01.0*A39.8  M01.0*  A39.8   M01.0 A39.8 
    ## # ... with 54,428 more rows
…
